<?xml version="1.0" encoding="UTF-8" standalone="no"?>
<!-- Uploaded to: SVG Repo, www.svgrepo.com, Generator: SVG Repo Mixer Tools -->

<svg
   width="861.74597"
   height="861.74597"
   viewBox="0 0 1103.0348 1103.0349"
   class="icon"
   version="1.1"
   id="svg12"
   sodipodi:docname="date.svg"
   inkscape:version="1.2.2 (b0a8486541, 2022-12-01)"
   xmlns:inkscape="http://www.inkscape.org/namespaces/inkscape"
   xmlns:sodipodi="http://sodipodi.sourceforge.net/DTD/sodipodi-0.dtd"
   xmlns="http://www.w3.org/2000/svg"
   xmlns:svg="http://www.w3.org/2000/svg">
  <defs
     id="defs16" />
  <sodipodi:namedview
     id="namedview14"
     pagecolor="#ffffff"
     bordercolor="#000000"
     borderopacity="0.25"
     inkscape:showpageshadow="2"
     inkscape:pageopacity="0.0"
     inkscape:pagecheckerboard="0"
     inkscape:deskcolor="#d1d1d1"
     showgrid="false"
     inkscape:zoom="0.417193"
     inkscape:cx="116.25315"
     inkscape:cy="346.36247"
     inkscape:window-width="1440"
     inkscape:window-height="831"
     inkscape:window-x="0"
     inkscape:window-y="0"
     inkscape:window-maximized="1"
     inkscape:current-layer="svg12" />
  <path
     d="M 1003.5749,202.352 H 100.74192 c -25.476995,0 -46.128995,21.177 -46.128995,47.298 v 7.139 c 0,26.121 20.652,47.296 46.128995,47.296 h 902.83298 c 25.48,0 46.131,-21.175 46.131,-47.296 v -7.139 c 0,-26.121 -20.65,-47.298 -46.131,-47.298 z"
     fill="#4a5699"
     id="path2" />
  <path
     d="M 1003.5749,837.303 H 100.74192 c -25.476995,0 -46.128995,21.173 -46.128995,47.296 v 7.141 c 0,26.119 20.652,47.297 46.128995,47.297 h 902.83298 c 25.48,0 46.131,-21.178 46.131,-47.297 v -7.141 c 0,-26.123 -20.65,-47.296 -46.131,-47.296 z"
     fill="#c45fa0"
     id="path4" />
  <path
     d="m 107.70493,202.352 h -7.08201 c -26.120995,0 -47.293995,21.177 -47.293995,47.298 v 642.09 c 0,26.119 21.173,47.297 47.293995,47.297 h 7.08201 c 26.12099,0 47.29399,-21.178 47.29399,-47.297 V 249.65 c 0.001,-26.121 -21.173,-47.298 -47.29399,-47.298 z m 894.70497,0 h -7.08197 c -26.119,0 -47.29601,21.177 -47.29601,47.298 v 642.09 c 0,26.119 21.17701,47.297 47.29601,47.297 h 7.08197 c 26.122,0 47.296,-21.178 47.296,-47.297 V 249.65 c 0,-26.121 -21.174,-47.298 -47.296,-47.298 z"
     fill="#f39a2b"
     id="path6" />
  <path
     d="m 464.90993,451.424 h -7.082 c -26.121,0 -47.29601,21.171 -47.29601,47.294 v 38.715 c 0,26.119 21.17501,47.296 47.29601,47.296 h 7.082 c 26.121,0 47.298,-21.177 47.298,-47.296 v -38.715 c 0,-26.122 -21.177,-47.294 -47.298,-47.294 z m 175.29499,0 h -7.082 c -26.118,0 -47.292,21.171 -47.292,47.294 v 38.715 c 0,26.119 21.174,47.296 47.292,47.296 h 7.082 c 26.11901,0 47.3,-21.177 47.3,-47.296 v -38.715 c 0,-26.122 -21.181,-47.294 -47.3,-47.294 z m 175.299,0 h -7.082 c -26.12199,0 -47.296,21.171 -47.296,47.294 v 38.715 c 0,26.119 21.174,47.296 47.296,47.296 h 7.082 c 26.119,0 47.292,-21.177 47.292,-47.296 v -38.715 c 0,-26.122 -21.173,-47.294 -47.292,-47.294 z m 0,175.402 h -7.082 c -26.12199,0 -47.296,21.17 -47.296,47.293 v 38.716 c 0,26.115 21.174,47.293 47.296,47.293 h 7.082 c 26.119,0 47.292,-21.178 47.292,-47.293 v -38.716 c 0,-26.123 -21.173,-47.293 -47.292,-47.293 z m -175.299,0 h -7.082 c -26.118,0 -47.292,21.17 -47.292,47.293 v 38.716 c 0,26.115 21.174,47.293 47.292,47.293 h 7.082 c 26.11901,0 47.3,-21.178 47.3,-47.293 v -38.716 c 0,-26.123 -21.181,-47.293 -47.3,-47.293 z m -175.29499,0 h -7.082 c -26.121,0 -47.29601,21.17 -47.29601,47.293 v 38.716 c 0,26.115 21.17501,47.293 47.29601,47.293 h 7.082 c 26.121,0 47.298,-21.178 47.298,-47.293 v -38.716 c 0,-26.123 -21.177,-47.293 -47.298,-47.293 z m -175.297,0 h -7.08001 c -26.12299,0 -47.29399,21.17 -47.29399,47.293 v 38.716 c 0,26.115 21.171,47.293 47.29399,47.293 h 7.08001 c 26.123,0 47.29399,-21.178 47.29399,-47.293 v -38.716 c 0,-26.123 -21.17099,-47.293 -47.29399,-47.293 z"
     fill="#e5594f"
     id="path8" />
  <path
     d="m 337.53792,107.52 h -7.43499 c -26.125,0 -47.29601,19.988 -47.29601,44.649 v 175.677 c 0,24.657 21.17101,44.649 47.29601,44.649 h 7.43499 c 26.125,0 47.29601,-19.992 47.29601,-44.649 V 152.169 c 0,-24.661 -21.17201,-44.649 -47.29601,-44.649 z m 420.711,0 h -7.438 c -26.11799,0 -47.29199,19.988 -47.29199,44.649 v 175.677 c 0,24.657 21.174,44.649 47.292,44.649 h 7.438 c 26.123,0 47.296,-19.992 47.296,-44.649 V 152.169 c 0,-24.661 -21.173,-44.649 -47.29601,-44.649 z"
     fill="#6277ba"
     id="path10" />
  <path
     style="fill:#ececec;stroke:#000000;stroke-width:9.05942;stroke-linecap:square;stroke-linejoin:round;-inkscape-stroke:none;paint-order:markers fill stroke;stop-color:#000000"
     d="M 123.44407,445.83682 V 238.49873 h 47.93944 47.93944 v 11.47697 c 0,15.3225 8.22314,31.17051 19.13838,36.88436 10.13384,5.3048 33.38625,5.85168 42.70269,1.00434 13.76683,-7.16288 18.24174,-14.76308 19.25547,-32.70359 l 0.94149,-16.66208 h 123.17359 123.17357 v 11.22808 c 0,13.4026 7.04223,28.81623 16.21439,35.48914 4.67944,3.40436 11.36109,5.00714 23.33565,5.59767 14.45762,0.71298 17.9089,0.0531 24.9478,-4.77022 12.58065,-8.62065 16.82953,-16.08678 18.53157,-32.5636 l 1.54753,-14.98107 h 53.59043 53.5904 V 445.83682 653.17491 H 431.45499 123.44407 Z m 119.93995,144.41757 c 15.96066,-8.04848 21.4814,-20.52299 21.4814,-48.53869 0,-37.2848 -12.38586,-52.6964 -42.37048,-52.72116 -16.56648,-0.0137 -24.3204,4.11014 -33.73338,17.94069 -4.77855,7.02114 -5.39319,10.90232 -5.39319,34.05549 0,27.85351 1.90199,34.56239 12.64232,44.59324 11.70822,10.9348 31.14976,12.85151 47.37333,4.67043 z m 135.57471,0.82593 c 5.40376,-2.4541 12.4149,-8.09326 15.58032,-12.53147 5.30771,-7.4419 5.7553,-10.30645 5.7553,-36.83315 0,-26.2791 -0.48218,-29.43968 -5.58217,-36.58999 -11.50549,-16.13098 -35.01664,-21.50436 -53.00332,-12.1137 -17.61806,9.19821 -20.38907,15.03146 -21.31516,44.87058 -0.92831,29.91047 1.86238,39.4178 14.32883,48.81541 13.17254,9.92992 28.6455,11.46276 44.2362,4.38232 z m 137.5398,-0.82593 c 18.3062,-9.35402 20.42323,-14.38545 20.42323,-48.53869 0,-26.10166 -0.58472,-30.41256 -4.93426,-36.37805 -6.39304,-8.76817 -23.71816,-17.55382 -34.61578,-17.55382 -10.89762,0 -28.22274,8.78565 -34.61578,17.55382 -4.34954,5.96549 -4.93426,10.27639 -4.93426,36.37805 0,26.10167 0.58472,30.41257 4.93426,36.37806 6.39304,8.76817 23.71816,17.55382 34.61578,17.55382 4.71465,0 13.32172,-2.42694 19.12681,-5.39319 z m 143.0919,-3.15643 c 12.92371,-9.85738 15.69413,-19.09543 14.75931,-49.21537 -0.9261,-29.83912 -3.69709,-35.67237 -21.31515,-44.87058 -8.41845,-4.39518 -13.07682,-5.29079 -22.263,-4.28022 -26.82507,2.95096 -37.52098,18.05481 -37.52098,52.98391 0,17.79433 0.98196,23.70275 5.39318,32.45048 10.85949,21.53502 41.22109,27.97722 60.94664,12.93178 z M 384.39782,451.24841 c 12.34891,-7.57765 16.97977,-20.34778 17.04238,-46.99635 0.0611,-26.03882 -3.35934,-35.58749 -16.27765,-45.44078 -7.26045,-5.53781 -10.7682,-6.45637 -24.65513,-6.45637 -17.49993,0 -24.58221,3.39914 -34.3711,16.49643 -4.05841,5.43006 -5.09197,10.9516 -5.78053,30.88117 -0.46116,13.34786 0.32968,28.16777 1.75742,32.93314 6.95987,23.22998 39.08952,32.81594 62.28461,18.58276 z m 134.95692,1.53206 c 3.52148,-1.80172 8.91467,-6.7977 11.98486,-11.10218 5.1108,-7.16546 5.58216,-10.29095 5.58216,-37.01347 0,-31.79615 -1.53049,-36.18895 -16.50344,-47.36786 -9.45546,-7.05952 -36.63774,-7.05952 -46.0932,0 -14.46563,10.80015 -16.44483,15.9681 -17.21922,44.96184 -0.78461,29.3751 2.01144,38.65922 14.43665,47.93596 11.93479,8.91061 33.20211,10.06075 47.81219,2.58571 z m 137.15285,-0.47417 c 14.45695,-8.46823 16.96663,-14.88883 17.81887,-45.58669 0.72298,-26.04152 0.38798,-28.56886 -4.79394,-36.16702 -9.83665,-14.42332 -17.16505,-18.19846 -35.31342,-18.19128 -13.87724,0.006 -17.39837,0.92788 -24.6466,6.45637 -12.78667,9.75288 -16.32189,19.45338 -16.32189,44.78663 0,25.46736 4.24542,38.6102 14.92935,46.21783 13.77839,9.81109 34.04098,10.85264 48.32763,2.48416 z"
     id="path375"
     transform="scale(1.28)" />
</svg>
