<?xml version="1.0" encoding="UTF-8" standalone="no"?>
<!-- Uploaded to: SVG Repo, www.svgrepo.com, Generator: SVG Repo Mixer Tools -->

<svg
   width="800px"
   height="800px"
   viewBox="0 0 1024 1024"
   class="icon"
   version="1.1"
   id="svg143"
   sodipodi:docname="regle.svg"
   inkscape:version="1.2.2 (b0a8486541, 2022-12-01)"
   xml:space="preserve"
   xmlns:inkscape="http://www.inkscape.org/namespaces/inkscape"
   xmlns:sodipodi="http://sodipodi.sourceforge.net/DTD/sodipodi-0.dtd"
   xmlns="http://www.w3.org/2000/svg"
   xmlns:svg="http://www.w3.org/2000/svg"><defs
     id="defs147"><linearGradient
       x1="100"
       y1="10"
       x2="0"
       y2="10"
       id="Gradient0"
       gradientUnits="userSpaceOnUse"
       gradientTransform="matrix(4.4531362,0,0,4.4531362,613.92263,345.16402)"><stop
         style="stop-color:#FFCB91;stop-opacity:1"
         offset="0"
         id="stop4594" /><stop
         style="stop-color:#F4850A;stop-opacity:1"
         offset="1"
         id="stop4596" /></linearGradient><linearGradient
       x1="100"
       y1="10"
       x2="0"
       y2="10"
       id="Gradient1"
       gradientUnits="userSpaceOnUse"
       gradientTransform="matrix(3.5241256,0,0,2.860407,701.11495,265.19989)"><stop
         style="stop-color:#FFF;stop-opacity:1"
         offset="0"
         id="stop4599" /><stop
         style="stop-color:#CCC;stop-opacity:1"
         offset="1"
         id="stop4601" /></linearGradient></defs><sodipodi:namedview
     id="namedview145"
     pagecolor="#ffffff"
     bordercolor="#000000"
     borderopacity="0.25"
     inkscape:showpageshadow="2"
     inkscape:pageopacity="0.0"
     inkscape:pagecheckerboard="0"
     inkscape:deskcolor="#d1d1d1"
     showgrid="false"
     inkscape:zoom="0.59"
     inkscape:cx="358.47458"
     inkscape:cy="455.08475"
     inkscape:window-width="1440"
     inkscape:window-height="831"
     inkscape:window-x="0"
     inkscape:window-y="0"
     inkscape:window-maximized="1"
     inkscape:current-layer="svg143" /><path
     d="m 27.647622,794.52037 0.01509,-311.42868 955.585988,0.0151 -0.0151,311.42868 z"
     fill="#ffa000"
     id="path139"
     style="fill:#008080" /><path
     d="M 484.63094,623.51745 V 482.74474 h 42.66022 v 140.7727 z M 605.3105,563.47936 v -78.92443 h 42.66021 v 78.92443 z m 120.69464,60.05317 v -140.7727 l 42.66022,-1e-5 v 140.77271 z m 120.61922,-140.19948 42.6753,0.0151 -0.0151,78.90934 h -42.66022 z m -724.07734,80.10106 v -78.92443 h 42.66022 v 78.92443 z m 120.69464,60.05316 -1e-5,-140.7727 h 42.66023 v 140.7727 z m 120.69463,-60.02299 v -78.92443 l 42.66023,-10e-6 v 78.92443 z"
     fill="#9e6400"
     id="path141"
     style="fill:#999999" /><path
     style="fill:#ff0000;fill-opacity:1;stroke:#ff0000;stroke-width:102.4;stroke-linecap:square;stroke-linejoin:miter;stroke-dasharray:none;stroke-opacity:1;paint-order:markers stroke fill"
     d="m 78.847623,432.08281 c 521.164727,0 521.164727,0 521.164727,0"
     id="path484" /><path
     id="path1121"
     style="fill:#ff5555;stroke-width:173.559;stroke-linecap:square;stroke-dasharray:none;paint-order:markers stroke fill"
     d="m 945.48828,160.85938 c -3.48912,0.16912 -6.38071,2.37344 -8.99349,4.47617 -7.38075,6.12974 -14.15494,12.94036 -21.01706,19.63303 -23.27445,22.95331 -46.16943,46.2889 -69.1508,69.5336 -33.17443,33.67559 -66.3956,67.30245 -99.4286,101.11284 -12.50642,12.84412 -25.04768,25.66431 -37.14651,38.89779 -4.52316,5.01678 -9.13313,10.02626 -12.76346,15.74768 -1.70295,2.78885 -2.71538,6.08448 -2.32357,9.36979 0.26664,6.01541 2.68497,12.18425 7.49418,15.99578 4.67006,3.83175 11.01042,5.91948 17.01477,4.6447 2.69828,-0.4715 5.43189,-1.38948 7.43586,-3.33582 4.66436,-3.932 8.99684,-8.23367 13.4265,-12.42285 22.29831,-21.43356 44.18319,-43.28988 66.0683,-65.14439 31.25725,-31.2771 62.28047,-62.7856 93.33455,-94.26694 16.35926,-16.65762 32.78524,-33.25891 48.66501,-50.37828 6.12898,-6.73575 12.37997,-13.43175 17.48393,-21.00178 2.44153,-3.67602 4.52427,-7.93177 4.21045,-12.46098 -0.23644,-3.00688 -1.37753,-5.85983 -2.6499,-8.5605 -2.40728,-3.93507 -6.4286,-6.49248 -10.41013,-8.61377 -3.48481,-1.78289 -7.27653,-3.27389 -11.25003,-3.22607 z" /><g
     id="Page-1"
     stroke="none"
     stroke-width="1"
     fill="none"
     fill-rule="evenodd"
     transform="matrix(18.70158,0,0,18.70158,647.07421,111.68204)"><g
       id="Dribbble-Light-Preview"
       transform="translate(-100,-2319)"
       fill="#000000"><g
         id="icons"
         transform="translate(56,160)"><path
           d="m 60.767988,2163.592 -12.369647,12.5216 c -0.389234,0.394 -1.02099,0.394 -1.411222,0 -0.389234,-0.395 -0.389234,-1.0345 0,-1.4296 l 12.369647,-12.5205 c 0.389234,-0.395 1.02099,-0.395 1.411222,0 v 0 c 0.390232,0.394 0.390232,1.0335 0,1.4285 m 2.930231,-1.7094 -2.653775,-2.6025 c -0.393226,-0.3869 -1.022986,-0.3688 -1.408228,0.028 l -15.34978,15.7959 C 44.102798,2175.2932 44,2175.5468 44,2175.8125 v 2.3651 c 0,0.5587 0.446122,0.8224 0.998035,0.8224 h 2.288495 c 0.260487,0 0.510994,-0.01 0.697626,-0.193 l 15.715061,-15.5009 c 0.40121,-0.397 0.40121,-1.0274 -9.98e-4,-1.4235"
           id="pen-[#1321]" /></g></g></g></svg>
