<?xml version="1.0" encoding="UTF-8" standalone="no"?>
<!-- Uploaded to: SVG Repo, www.svgrepo.com, Generator: SVG Repo Mixer Tools -->

<svg
   version="1.1"
   id="Layer_1"
   viewBox="0 0 128 128"
   xml:space="preserve"
   sodipodi:docname="souligne_bleu.svg"
   inkscape:version="1.2.2 (b0a8486541, 2022-12-01)"
   width="128"
   height="128"
   xmlns:inkscape="http://www.inkscape.org/namespaces/inkscape"
   xmlns:sodipodi="http://sodipodi.sourceforge.net/DTD/sodipodi-0.dtd"
   xmlns="http://www.w3.org/2000/svg"
   xmlns:svg="http://www.w3.org/2000/svg"
   xmlns:rdf="http://www.w3.org/1999/02/22-rdf-syntax-ns#"
   xmlns:cc="http://creativecommons.org/ns#"
   xmlns:dc="http://purl.org/dc/elements/1.1/"><metadata
   id="metadata15"><rdf:RDF><cc:Work
       rdf:about=""><dc:format>image/svg+xml</dc:format><dc:type
         rdf:resource="http://purl.org/dc/dcmitype/StillImage" /></cc:Work></rdf:RDF></metadata><defs
   id="defs13" /><sodipodi:namedview
   pagecolor="#ffffff"
   bordercolor="#666666"
   borderopacity="1"
   objecttolerance="10"
   gridtolerance="10"
   guidetolerance="10"
   inkscape:pageopacity="0"
   inkscape:pageshadow="2"
   inkscape:window-width="1440"
   inkscape:window-height="831"
   id="namedview11"
   showgrid="false"
   inkscape:zoom="1.84375"
   inkscape:cx="-11.661017"
   inkscape:cy="121.49153"
   inkscape:window-x="0"
   inkscape:window-y="0"
   inkscape:window-maximized="1"
   inkscape:current-layer="Layer_1"
   inkscape:pagecheckerboard="0"
   fit-margin-top="0"
   fit-margin-left="0"
   fit-margin-right="0"
   fit-margin-bottom="0"
   inkscape:showpageshadow="2"
   inkscape:deskcolor="#d1d1d1" />



<rect
   x="4.0748701"
   y="110.82925"
   style="fill:#0000ff;stroke-width:0.25;fill-opacity:1"
   width="119.67476"
   height="17.17075"
   id="rect2" /><path
   style="fill:#3030d3;fill-opacity:1;stroke-width:0.25"
   d="m 49.151122,75.967503 h 29.713751 l 5.374,18.211501 H 106.24962 L 75.757873,0 H 52.257872 L 21.834621,94.178754 H 43.844872 Z M 63.783123,25.496001 h 0.386 l 9.8405,33.300751 H 54.007372 Z"
   id="path4" /><rect
   x="64.087624"
   y="110.82925"
   style="fill:#000080;stroke-width:0.25"
   width="59.837505"
   height="17.17075"
   id="rect6" /><polygon
   style="fill:#000080"
   points="425.001,376.715 303.032,0 255.651,0 255.651,101.984 256.68,101.984 296.041,235.187 255.651,235.187 255.651,303.87 315.462,303.87 336.957,376.715 "
   id="polygon8"
   transform="matrix(0.25000001,0,0,0.25000001,-1.2987553e-4,0)" />
</svg>
