<?xml version="1.0" encoding="UTF-8" standalone="no"?>
<!-- Uploaded to: SVG Repo, www.svgrepo.com, Generator: SVG Repo Mixer Tools -->

<svg
   width="800px"
   height="800px"
   viewBox="0 0 100 100"
   version="1.1"
   id="svg6"
   sodipodi:docname="zoom_out.svg"
   inkscape:version="1.2.2 (b0a8486541, 2022-12-01)"
   xmlns:inkscape="http://www.inkscape.org/namespaces/inkscape"
   xmlns:sodipodi="http://sodipodi.sourceforge.net/DTD/sodipodi-0.dtd"
   xmlns="http://www.w3.org/2000/svg"
   xmlns:svg="http://www.w3.org/2000/svg">
  <defs
     id="defs10" />
  <sodipodi:namedview
     id="namedview8"
     pagecolor="#ffffff"
     bordercolor="#000000"
     borderopacity="0.25"
     inkscape:showpageshadow="2"
     inkscape:pageopacity="0.0"
     inkscape:pagecheckerboard="0"
     inkscape:deskcolor="#d1d1d1"
     showgrid="false"
     inkscape:zoom="0.59"
     inkscape:cx="339.83051"
     inkscape:cy="409.32203"
     inkscape:window-width="1440"
     inkscape:window-height="831"
     inkscape:window-x="0"
     inkscape:window-y="0"
     inkscape:window-maximized="1"
     inkscape:current-layer="svg6" />
  <g
     aria-label="A"
     id="text521"
     style="font-weight:bold;font-size:110.246px;font-family:OpenDyslexic;-inkscape-font-specification:'OpenDyslexic Bold';text-align:center;text-anchor:middle;stroke:#000000;stroke-width:2.13548;stroke-linecap:round;stroke-linejoin:round;paint-order:markers fill stroke;stop-color:#000000">
    <path
       d="m 85.673842,93.14061 h -17.3336 L 61.449867,75.214868 H 29.904868 L 23.391311,93.14061 H 6.4883591 L 37.225892,14.224282 h 16.84912 z M 56.335917,61.918597 45.462044,32.634503 34.803494,61.918597 Z"
       style="font-family:Arial;-inkscape-font-specification:'Arial Bold'"
       id="path573" />
  </g>
  <path
     style="fill:#5e9fce;fill-opacity:0.9;stroke:#041e31;stroke-width:1.87132"
     d="m 95.31434,32.046994 v -9.356591 c -40.545227,0 -11.307702,0 -40.545227,0 v 9.356591 c 33.518656,0 11.307701,0 40.545227,0 z"
     id="path4"
     sodipodi:nodetypes="ccccc" />
</svg>
